Tidy Data
…
Each observation (row) is a SNP from a GWAS study and we information on its location, the disease/trait associated, etc. Let’s filter just SNPs for colorectal cancer

filter(gwas, `DISEASE/TRAIT` == 'Colorectal cancer')

# A tibble: 559 × 38
   DATE ADDED T…¹ PUBME…² FIRST…³ DATE       JOURNAL LINK  STUDY DISEA…⁴ INITI…⁵
   <date>           <dbl> <chr>   <date>     <chr>   <chr> <chr> <chr>   <chr>  
 1 2016-12-21      2.71e7 Wang M  2016-05-05 Nat Co… www.… Comm… Colore… 1,023 …
 2 2016-12-21      2.71e7 Wang M  2016-05-05 Nat Co… www.… Comm… Colore… 1,023 …
 3 2016-12-21      2.71e7 Wang M  2016-05-05 Nat Co… www.… Comm… Colore… 1,023 …
 4 2016-12-21      2.71e7 Wang M  2016-05-05 Nat Co… www.… Comm… Colore… 1,023 …
 5 2018-05-18      2.95e7 Tanika… 2018-02-17 Carcin… www.… GWAS… Colore… 6,692 …
 6 2018-05-18      2.95e7 Tanika… 2018-02-17 Carcin… www.… GWAS… Colore… 6,692 …
 7 2018-05-18      2.95e7 Tanika… 2018-02-17 Carcin… www.… GWAS… Colore… 6,692 …
 8 2018-05-18      2.95e7 Tanika… 2018-02-17 Carcin… www.… GWAS… Colore… 6,692 …
 9 2018-05-18      2.95e7 Tanika… 2018-02-17 Carcin… www.… GWAS… Colore… 6,692 …
10 2018-05-18      2.95e7 Tanika… 2018-02-17 Carcin… www.… GWAS… Colore… 6,692 …
# … with 549 more rows, 29 more variables: `REPLICATION SAMPLE SIZE` <chr>,
#   REGION <chr>, CHR_ID <chr>, CHR_POS <dbl>, `REPORTED GENE(S)` <chr>,
#   MAPPED_GENE <chr>, UPSTREAM_GENE_ID <chr>, DOWNSTREAM_GENE_ID <chr>,
#   SNP_GENE_IDS <chr>, UPSTREAM_GENE_DISTANCE <dbl>,
#   DOWNSTREAM_GENE_DISTANCE <dbl>, `STRONGEST SNP-RISK ALLELE` <chr>,
#   SNPS <chr>, MERGED <dbl>, SNP_ID_CURRENT <dbl>, CONTEXT <chr>,
#   INTERGENIC <dbl>, `RISK ALLELE FREQUENCY` <chr>, `P-VALUE` <dbl>, …

We could apply another filter by just adding an argument, such as having a -log(p-value) (higher values of this mean more significant!) of greater than 10

filter(gwas, `DISEASE/TRAIT` == 'Colorectal cancer', PVALUE_MLOG > 10)

# A tibble: 141 × 38
   DATE ADDED T…¹ PUBME…² FIRST…³ DATE       JOURNAL LINK  STUDY DISEA…⁴ INITI…⁵
   <date>           <dbl> <chr>   <date>     <chr>   <chr> <chr> <chr>   <chr>  
 1 2016-12-21      2.71e7 Wang M  2016-05-05 Nat Co… www.… Comm… Colore… 1,023 …
 2 2018-05-18      2.95e7 Tanika… 2018-02-17 Carcin… www.… GWAS… Colore… 6,692 …
 3 2018-05-18      2.95e7 Tanika… 2018-02-17 Carcin… www.… GWAS… Colore… 6,692 …
 4 2018-05-18      2.95e7 Tanika… 2018-02-17 Carcin… www.… GWAS… Colore… 6,692 …
 5 2018-05-18      2.95e7 Tanika… 2018-02-17 Carcin… www.… GWAS… Colore… 6,692 …
 6 2018-05-18      2.95e7 Tanika… 2018-02-17 Carcin… www.… GWAS… Colore… 6,692 …
 7 2018-05-18      2.95e7 Tanika… 2018-02-17 Carcin… www.… GWAS… Colore… 6,692 …
 8 2018-05-18      2.95e7 Tanika… 2018-02-17 Carcin… www.… GWAS… Colore… 6,692 …
 9 2018-05-18      2.95e7 Tanika… 2018-02-17 Carcin… www.… GWAS… Colore… 6,692 …
10 2018-05-18      2.95e7 Tanika… 2018-02-17 Carcin… www.… GWAS… Colore… 6,692 …
# … with 131 more rows, 29 more variables: `REPLICATION SAMPLE SIZE` <chr>,
#   REGION <chr>, CHR_ID <chr>, CHR_POS <dbl>, `REPORTED GENE(S)` <chr>,
#   MAPPED_GENE <chr>, UPSTREAM_GENE_ID <chr>, DOWNSTREAM_GENE_ID <chr>,
#   SNP_GENE_IDS <chr>, UPSTREAM_GENE_DISTANCE <dbl>,
#   DOWNSTREAM_GENE_DISTANCE <dbl>, `STRONGEST SNP-RISK ALLELE` <chr>,
#   SNPS <chr>, MERGED <dbl>, SNP_ID_CURRENT <dbl>, CONTEXT <chr>,
#   INTERGENIC <dbl>, `RISK ALLELE FREQUENCY` <chr>, `P-VALUE` <dbl>, …

Note that filter combines consecutive arguments by default using the “&”. You could equivalently give a single argument with the “&” to get the same slice

filter(gwas, `DISEASE/TRAIT` == 'Colorectal cancer' & PVALUE_MLOG > 10)

# A tibble: 141 × 38
   DATE ADDED T…¹ PUBME…² FIRST…³ DATE       JOURNAL LINK  STUDY DISEA…⁴ INITI…⁵
   <date>           <dbl> <chr>   <date>     <chr>   <chr> <chr> <chr>   <chr>  
 1 2016-12-21      2.71e7 Wang M  2016-05-05 Nat Co… www.… Comm… Colore… 1,023 …
 2 2018-05-18      2.95e7 Tanika… 2018-02-17 Carcin… www.… GWAS… Colore… 6,692 …
 3 2018-05-18      2.95e7 Tanika… 2018-02-17 Carcin… www.… GWAS… Colore… 6,692 …
 4 2018-05-18      2.95e7 Tanika… 2018-02-17 Carcin… www.… GWAS… Colore… 6,692 …
 5 2018-05-18      2.95e7 Tanika… 2018-02-17 Carcin… www.… GWAS… Colore… 6,692 …
 6 2018-05-18      2.95e7 Tanika… 2018-02-17 Carcin… www.… GWAS… Colore… 6,692 …
 7 2018-05-18      2.95e7 Tanika… 2018-02-17 Carcin… www.… GWAS… Colore… 6,692 …
 8 2018-05-18      2.95e7 Tanika… 2018-02-17 Carcin… www.… GWAS… Colore… 6,692 …
 9 2018-05-18      2.95e7 Tanika… 2018-02-17 Carcin… www.… GWAS… Colore… 6,692 …
10 2018-05-18      2.95e7 Tanika… 2018-02-17 Carcin… www.… GWAS… Colore… 6,692 …
# … with 131 more rows, 29 more variables: `REPLICATION SAMPLE SIZE` <chr>,
#   REGION <chr>, CHR_ID <chr>, CHR_POS <dbl>, `REPORTED GENE(S)` <chr>,
#   MAPPED_GENE <chr>, UPSTREAM_GENE_ID <chr>, DOWNSTREAM_GENE_ID <chr>,
#   SNP_GENE_IDS <chr>, UPSTREAM_GENE_DISTANCE <dbl>,
#   DOWNSTREAM_GENE_DISTANCE <dbl>, `STRONGEST SNP-RISK ALLELE` <chr>,
#   SNPS <chr>, MERGED <dbl>, SNP_ID_CURRENT <dbl>, CONTEXT <chr>,
#   INTERGENIC <dbl>, `RISK ALLELE FREQUENCY` <chr>, `P-VALUE` <dbl>, …

Arrange rows with arrange()

The function arrange just sorts the rows based on the columns you specify. For example, to sort the colorectal cancer SNPs by DATE of the study,

colocancer = filter(gwas, `DISEASE/TRAIT` == 'Colorectal cancer')
arrange(colocancer, DATE)

# A tibble: 559 × 38
   DATE ADDED T…¹ PUBME…² FIRST…³ DATE       JOURNAL LINK  STUDY DISEA…⁴ INITI…⁵
   <date>           <dbl> <chr>   <date>     <chr>   <chr> <chr> <chr>   <chr>  
 1 2008-06-16      1.76e7 Zanke … 2007-07-08 Nat Ge… www.… Geno… Colore… 1,257 …
 2 2008-06-16      1.76e7 Tomlin… 2007-07-08 Nat Ge… www.… A ge… Colore… 930 Eu…
 3 2008-06-16      1.79e7 Broder… 2007-10-14 Nat Ge… www.… A ge… Colore… 930 Eu…
 4 2008-06-16      1.84e7 Tenesa… 2008-03-30 Nat Ge… www.… Geno… Colore… 981 Eu…
 5 2008-06-16      1.84e7 Tenesa… 2008-03-30 Nat Ge… www.… Geno… Colore… 981 Eu…
 6 2008-06-16      1.84e7 Tenesa… 2008-03-30 Nat Ge… www.… Geno… Colore… 981 Eu…
 7 2008-06-16      1.84e7 Tomlin… 2008-03-30 Nat Ge… www.… A ge… Colore… 922 Eu…
 8 2008-06-16      1.84e7 Tomlin… 2008-03-30 Nat Ge… www.… A ge… Colore… 922 Eu…
 9 2008-06-16      1.84e7 Tomlin… 2008-03-30 Nat Ge… www.… A ge… Colore… 922 Eu…
10 2008-06-16      1.84e7 Tomlin… 2008-03-30 Nat Ge… www.… A ge… Colore… 922 Eu…
# … with 549 more rows, 29 more variables: `REPLICATION SAMPLE SIZE` <chr>,
#   REGION <chr>, CHR_ID <chr>, CHR_POS <dbl>, `REPORTED GENE(S)` <chr>,
#   MAPPED_GENE <chr>, UPSTREAM_GENE_ID <chr>, DOWNSTREAM_GENE_ID <chr>,
#   SNP_GENE_IDS <chr>, UPSTREAM_GENE_DISTANCE <dbl>,
#   DOWNSTREAM_GENE_DISTANCE <dbl>, `STRONGEST SNP-RISK ALLELE` <chr>,
#   SNPS <chr>, MERGED <dbl>, SNP_ID_CURRENT <dbl>, CONTEXT <chr>,
#   INTERGENIC <dbl>, `RISK ALLELE FREQUENCY` <chr>, `P-VALUE` <dbl>, …

and use desc to make the sort a descending one,

arrange(colocancer, desc(DATE))

# A tibble: 559 × 38
   DATE ADDED T…¹ PUBME…² FIRST…³ DATE       JOURNAL LINK  STUDY DISEA…⁴ INITI…⁵
   <date>           <dbl> <chr>   <date>     <chr>   <chr> <chr> <chr>   <chr>  
 1 2021-06-24      3.41e7 Nazari… 2021-05-01 Genes … www.… Geno… Colore… 211 Eu…
 2 2021-06-24      3.41e7 Nazari… 2021-05-01 Genes … www.… Geno… Colore… 211 Eu…
 3 2021-06-24      3.41e7 Nazari… 2021-05-01 Genes … www.… Geno… Colore… 211 Eu…
 4 2021-06-24      3.41e7 Nazari… 2021-05-01 Genes … www.… Geno… Colore… 211 Eu…
 5 2021-06-24      3.41e7 Nazari… 2021-05-01 Genes … www.… Geno… Colore… 211 Eu…
 6 2021-06-24      3.41e7 Nazari… 2021-05-01 Genes … www.… Geno… Colore… 211 Eu…
 7 2021-06-24      3.41e7 Nazari… 2021-05-01 Genes … www.… Geno… Colore… 211 Eu…
 8 2021-08-10      3.36e7 Matejc… 2021-02-24 Cancer… www.… Rare… Colore… 2,327 …
 9 2021-08-10      3.36e7 Matejc… 2021-02-24 Cancer… www.… Rare… Colore… 2,327 …
10 2021-02-26      3.25e7 Ishiga… 2020-06-08 Nat Ge… www.… Larg… Colore… 7,062 …
# … with 549 more rows, 29 more variables: `REPLICATION SAMPLE SIZE` <chr>,
#   REGION <chr>, CHR_ID <chr>, CHR_POS <dbl>, `REPORTED GENE(S)` <chr>,
#   MAPPED_GENE <chr>, UPSTREAM_GENE_ID <chr>, DOWNSTREAM_GENE_ID <chr>,
#   SNP_GENE_IDS <chr>, UPSTREAM_GENE_DISTANCE <dbl>,
#   DOWNSTREAM_GENE_DISTANCE <dbl>, `STRONGEST SNP-RISK ALLELE` <chr>,
#   SNPS <chr>, MERGED <dbl>, SNP_ID_CURRENT <dbl>, CONTEXT <chr>,
#   INTERGENIC <dbl>, `RISK ALLELE FREQUENCY` <chr>, `P-VALUE` <dbl>, …

Select columns with select()

The select function simple selects specific columns (i.e., variables). To get only the disease, chromosome position, and -log(p-value) from the full data,

select(gwas, `DISEASE/TRAIT`, CHR_POS, PVALUE_MLOG)

# A tibble: 119,874 × 3
   `DISEASE/TRAIT`       CHR_POS PVALUE_MLOG
   <chr>                   <dbl>       <dbl>
 1 Triglyceride levels  42387225        7.52
 2 Triglyceride levels   3442204        7.30
 3 Triglyceride levels  18415790        6.70
 4 Triglyceride levels  63122540        6.70
 5 Triglyceride levels  87101557        6.52
 6 Triglyceride levels  81501185        6.15
 7 Triglyceride levels  45923216        5.70
 8 Triglyceride levels  44492177        5.52
 9 Triglyceride levels 230160042        5.30
10 Triglyceride levels 164672114        5.22
# … with 119,864 more rows

Add new variables with mutate()

You may want to add new variables that are functions of other variables. For example, you could create a column for the p-value from the PVALUE_MLOG (there is already one in the table, but we’ll make another)

sm_gwas = select(gwas, `DISEASE/TRAIT`, CHR_POS, PVALUE_MLOG, `P-VALUE`)
mutate(sm_gwas, new_p_value = 10^(-PVALUE_MLOG))

# A tibble: 119,874 × 5
   `DISEASE/TRAIT`       CHR_POS PVALUE_MLOG  `P-VALUE` new_p_value
   <chr>                   <dbl>       <dbl>      <dbl>       <dbl>
 1 Triglyceride levels  42387225        7.52 0.00000003  0.00000003
 2 Triglyceride levels   3442204        7.30 0.00000005  0.00000005
 3 Triglyceride levels  18415790        6.70 0.0000002   0.0000002 
 4 Triglyceride levels  63122540        6.70 0.0000002   0.0000002 
 5 Triglyceride levels  87101557        6.52 0.0000003   0.0000003 
 6 Triglyceride levels  81501185        6.15 0.0000007   0.0000007 
 7 Triglyceride levels  45923216        5.70 0.000002    0.000002  
 8 Triglyceride levels  44492177        5.52 0.000003    0.000003  
 9 Triglyceride levels 230160042        5.30 0.000005    0.000005  
10 Triglyceride levels 164672114        5.22 0.000006    0.000006  
# … with 119,864 more rows
…
The function summarise (damn British spelling, though the American one works too apparently) collapses the data frame to a single row:

summarize(gwas, mean_mlog_p_value = mean(PVALUE_MLOG)) 

# A tibble: 1 × 1
  mean_mlog_p_value
              <dbl>
1              21.4

This isn’t terribly useful until you use the group_by function to do the summarize action on data by “group”, which you specify according to values of variables. To see the average for each disease, group by DISEASE/TRAIT,

grouped_gwas = group_by(gwas, `DISEASE/TRAIT`)
summarize(grouped_gwas, mean_mlog_p_value = mean(PVALUE_MLOG))

# A tibble: 100 × 2
   `DISEASE/TRAIT`                   mean_mlog_p_value
   <chr>                                         <dbl>
 1 Adolescent idiopathic scoliosis                14.3
 2 Alanine aminotransferase levels                19.8
 3 Apolipoprotein A1 levels                       48.8
 4 Apolipoprotein B levels                        62.2
 5 Appendicular lean mass                         19.0
 6 Aspartate aminotransferase levels              18.5
 7 Asthma                                         17.4
 8 Basophil count                                 22.8
 9 Brain region volumes                           11.0
10 Breast cancer                                  12.8
# … with 90 more rows

or add the journal the study was published in

grouped_gwas = group_by(gwas, `DISEASE/TRAIT`, JOURNAL)
meanp = summarize(grouped_gwas, mean_mlog_p_value = mean(PVALUE_MLOG))

`summarise()` has grouped output by 'DISEASE/TRAIT'. You can override using the
`.groups` argument.

meanp

# A tibble: 579 × 3
# Groups:   DISEASE/TRAIT [100]
   `DISEASE/TRAIT`                 JOURNAL                       mean_mlog_p_v…¹
   <chr>                           <chr>                                   <dbl>
 1 Adolescent idiopathic scoliosis Am J Hum Genet                          16.7 
 2 Adolescent idiopathic scoliosis Hum Genet                               14.4 
 3 Adolescent idiopathic scoliosis Hum Mol Genet                           12.1 
 4 Adolescent idiopathic scoliosis Nat Commun                              12.8 
 5 Alanine aminotransferase levels Nat Commun                              20.7 
 6 Alanine aminotransferase levels Nat Genet                               19.3 
 7 Alanine aminotransferase levels Obesity (Silver Spring)                  5.67
 8 Alanine aminotransferase levels Sci Rep                                  7.15
 9 Apolipoprotein A1 levels        Arterioscler Thromb Vasc Biol          527.  
10 Apolipoprotein A1 levels        Nat Genet                               29.2 
# … with 569 more rows, and abbreviated variable name ¹​mean_mlog_p_value

Finally, let’s take the mean across all diseases for each journal and then sort by p-value to see the pattern with the journal a little better

arrange(summarize(group_by(gwas, JOURNAL), mean_mlog_p_value = mean(PVALUE_MLOG)), desc(mean_mlog_p_value))

# A tibble: 132 × 2
   JOURNAL                       mean_mlog_p_value
   <chr>                                     <dbl>
 1 Arterioscler Thromb Vasc Biol             317. 
 2 J Acad Nutr Diet                          149. 
 3 Sci Adv                                    53.5
 4 NPJ Genom Med                              52.6
 5 J Cell Mol Med                             40.5
 6 Circulation                                35.4
 7 Lancet                                     31.8
 8 Nat Med                                    30.5
 9 Circ Cardiovasc Genet                      29.9
10 Cell                                       29.8
# … with 122 more rows

Another nice function to use with summarize is the “counting” function n(), which can give the number of rows in each group. Since each row is a SNP, we can get the number of SNPs for each disease/trait this way:

arrange(summarize(group_by(gwas, `DISEASE/TRAIT`), n_SNPS = n()), desc(n_SNPS))

# A tibble: 100 × 2
   `DISEASE/TRAIT`                                                 n_SNPS
   <chr>                                                            <int>
 1 Electrocardiogram morphology (amplitude at temporal datapoints)   5272
 2 Height                                                            5014
 3 Heel bone mineral density                                         4508
 4 Type 2 diabetes                                                   3079
 5 Mean corpuscular hemoglobin                                       2920
 6 Protein quantitative trait loci (liver)                           2891
 7 Platelet count                                                    2506
 8 Red cell distribution width                                       2441
 9 Mean corpuscular volume                                           2384
10 Metabolite levels                                                 2377
# … with 90 more rows

Using the %>% operator to chain together functions

The slicing and summarzing operations we’ve been doing can quickly get messy as we added more operations. Since each operation is applied to the results of the previous one, it ends up with a bunch of very nested parentheses, which can be hard to read. The pipe operator %>% allows you to easily chain together operations so that its easier to read them from left to right. For example, the previous summarize and arrange operations could be put together like

gwas %>%
  group_by(`DISEASE/TRAIT`) %>%
  summarize(n_SNPS = n()) %>%
  arrange(desc(n_SNPS))

# A tibble: 100 × 2
   `DISEASE/TRAIT`                                                 n_SNPS
   <chr>                                                            <int>
 1 Electrocardiogram morphology (amplitude at temporal datapoints)   5272
 2 Height                                                            5014
 3 Heel bone mineral density                                         4508
 4 Type 2 diabetes                                                   3079
 5 Mean corpuscular hemoglobin                                       2920
 6 Protein quantitative trait loci (liver)                           2891
 7 Platelet count                                                    2506
 8 Red cell distribution width                                       2441
 9 Mean corpuscular volume                                           2384
10 Metabolite levels                                                 2377
# … with 90 more rows
…
