Visualizing lots of data
…
Schedule for lightning talks

Plotting data with many variables

In many of the datasets that we’ve seen so far, we’ve already been faced with the problem that the data could be visualized in many different ways because they have many different variables. Some datasets were time series and it was clear that scatter plots or line plots were useful with time on the x-axis and multiple variables on the y-axis. For example, these global COVID-19 data from Our World in Data (https://github.com/owid/covid-19-data/tree/master/public/data) for the year 2021

library(tidyverse)
theme_set(theme_classic())

owid = read_csv("https://github.com/vancleve/BIO621-DWVR/raw/main/owid-covid-data_2021.csv")

owid

# A tibble: 83,697 × 67
   iso_code continent locat…¹ date       total…² new_c…³ new_c…⁴ total…⁵ new_d…⁶
   <chr>    <chr>     <chr>   <date>       <dbl>   <dbl>   <dbl>   <dbl>   <dbl>
 1 AFG      Asia      Afghan… 2021-01-01   52513     183    131.    2201      12
 2 AFG      Asia      Afghan… 2021-01-02   52586      73    117.    2211      10
 3 AFG      Asia      Afghan… 2021-01-03   52709     123    123     2221      10
 4 AFG      Asia      Afghan… 2021-01-04   52909     200    129.    2230       9
 5 AFG      Asia      Afghan… 2021-01-05   53011     102    123.    2237       7
 6 AFG      Asia      Afghan… 2021-01-06   53105      94    111.    2244       7
 7 AFG      Asia      Afghan… 2021-01-07   53207     102    125.    2253       9
 8 AFG      Asia      Afghan… 2021-01-08   53332     125    117     2257       4
 9 AFG      Asia      Afghan… 2021-01-09   53400      68    116.    2264       7
10 AFG      Asia      Afghan… 2021-01-10   53489      89    111.    2277      13
# … with 83,687 more rows, 58 more variables: new_deaths_smoothed <dbl>,
#   total_cases_per_million <dbl>, new_cases_per_million <dbl>,
#   new_cases_smoothed_per_million <dbl>, total_deaths_per_million <dbl>,
#   new_deaths_per_million <dbl>, new_deaths_smoothed_per_million <dbl>,
#   reproduction_rate <dbl>, icu_patients <dbl>,
#   icu_patients_per_million <dbl>, hosp_patients <dbl>,
#   hosp_patients_per_million <dbl>, weekly_icu_admissions <dbl>, …
…
